<?xml version="1.0" encoding="utf-8"?>
<!-- Generator: Adobe Illustrator 21.0.0, SVG Export Plug-In . SVG Version: 6.00 Build 0)  -->
<svg version="1.1" id="Livello_1" xmlns="http://www.w3.org/2000/svg" xmlns:xlink="http://www.w3.org/1999/xlink" x="0px" y="0px"
	 viewBox="0 0 175 175" style="enable-background:new 0 0 175 175;" xml:space="preserve">
<style type="text/css">
	.st0{fill:#F7A600;}
</style>
<g transform="translate(0,-270.54165)">
	<path class="st0" d="M87.5,270.5C39.2,270.5,0,309.8,0,358s39.2,87.5,87.5,87.5S175,406.3,175,358S135.8,270.5,87.5,270.5z
		 M87.5,278c44.3,0,80,35.8,80,80c0,44.3-35.8,80-80,80s-80-35.8-80-80S43.2,278,87.5,278z"/>
	<path class="st0" d="M87.5,285.4c-10.5,0-20.4,2.2-29.4,6.2c-1.9,0.8-2.8,3-2,4.9c0.8,1.9,3,2.8,4.9,2c0.1,0,0.1-0.1,0.2-0.1
		c8.1-3.6,17-5.6,26.4-5.6c36,0,65.2,29.1,65.2,65.2s-29.1,65.2-65.2,65.2S22.3,394.1,22.3,358c0-9.5,2-18.5,5.7-26.6
		c0.9-1.8,0.1-4.1-1.7-5c-1.8-0.9-4.1-0.1-5,1.7c0,0.1-0.1,0.2-0.1,0.2c-4.1,9.1-6.3,19.1-6.3,29.7c0,40.1,32.5,72.6,72.6,72.6
		s72.6-32.5,72.6-72.6S127.6,285.4,87.5,285.4z"/>
	<path class="st0" d="M87.4,300.3c-2.1,0-3.7,1.7-3.7,3.8c0,0,0,0,0,0v43.5c-3.1,1.1-5.6,3.6-6.8,6.8H44.7c-2.1,0-3.7,1.7-3.7,3.7
		s1.7,3.7,3.7,3.7H77c1.1,3.1,3.6,5.6,6.8,6.8v4.4c0,2.1,1.7,3.7,3.7,3.7s3.7-1.7,3.7-3.7v-4.4c3.1-1.1,5.7-3.6,6.8-6.8h4.4
		c2.1,0,3.7-1.7,3.7-3.7s-1.7-3.7-3.7-3.7H98c-1.1-3.1-3.6-5.7-6.8-6.8v-43.5c0-2.1-1.6-3.7-3.7-3.8
		C87.5,300.3,87.5,300.3,87.4,300.3z M87.5,354.3c2.1,0,3.7,1.6,3.7,3.7c0,2-1.4,3.5-3.4,3.7c-0.1,0-0.3,0-0.4,0c-0.1,0-0.2,0-0.3,0
		c-1.9-0.2-3.4-1.7-3.4-3.7C83.8,355.9,85.4,354.3,87.5,354.3z"/>
</g>
</svg>
